EESchema Schematic File Version 4
LIBS:muff-cache
EELAYER 26 0
EELAYER END
$Descr A4 11693 8268
encoding utf-8
Sheet 1 1
Title ""
Date ""
Rev ""
Comp ""
Comment1 ""
Comment2 ""
Comment3 ""
Comment4 ""
$EndDescr
$Comp
L muff-rescue:TL072 U1
U 1 1 5AAD3BC2
P 2800 3250
F 0 "U1" H 2800 3450 50  0000 L CNN
F 1 "TL072" H 2800 3050 50  0000 L CNN
F 2 "Package_DIP:DIP-8_W7.62mm" H 2800 3250 50  0001 C CNN
F 3 "" H 2800 3250 50  0001 C CNN
	1    2800 3250
	1    0    0    -1  
$EndComp
$Comp
L muff-rescue:CP C4
U 1 1 5AAD4B22
P 2000 1800
F 0 "C4" H 2025 1900 50  0000 L CNN
F 1 "1uF" H 2025 1700 50  0000 L CNN
F 2 "Capacitor_THT:CP_Axial_L10.0mm_D4.5mm_P15.00mm_Horizontal" H 2038 1650 50  0001 C CNN
F 3 "" H 2000 1800 50  0001 C CNN
	1    2000 1800
	1    0    0    -1  
$EndComp
$Comp
L muff-rescue:Conn_01x02 IN1
U 1 1 5AAD5811
P 750 3050
F 0 "IN1" H 750 3150 50  0000 C CNN
F 1 "Conn_01x02" H 750 2850 50  0000 C CNN
F 2 "Connector_Wire:SolderWirePad_1x02_P3.81mm_Drill0.8mm" H 750 3050 50  0001 C CNN
F 3 "" H 750 3050 50  0001 C CNN
	1    750  3050
	-1   0    0    -1  
$EndComp
Text GLabel 1900 2050 3    60   Input ~ 0
VSS
$Comp
L muff-rescue:R R3
U 1 1 5AAD6877
P 2100 4050
F 0 "R3" V 2180 4050 50  0000 C CNN
F 1 "10k" V 2100 4050 50  0000 C CNN
F 2 "Resistor_SMD:R_0603_1608Metric_Pad1.05x0.95mm_HandSolder" V 2030 4050 50  0001 C CNN
F 3 "" H 2100 4050 50  0001 C CNN
	1    2100 4050
	0    1    1    0   
$EndComp
Text GLabel 2700 3650 3    60   Input ~ 0
VSS
Text GLabel 2700 2850 1    60   Input ~ 0
VCC
Text GLabel 2350 2700 1    60   Input ~ 0
PASSTHRU
Connection ~ 1800 4050
Wire Wire Line
	2500 3350 2400 3350
Wire Wire Line
	2400 3350 2400 4050
Connection ~ 2400 4050
Wire Wire Line
	3100 3250 3200 3250
$Comp
L muff-rescue:POT GAIN1
U 1 1 5AAD7D80
P 2900 4050
F 0 "GAIN1" V 2725 4050 50  0000 C CNN
F 1 "100k" V 2800 4050 50  0000 C CNN
F 2 "Connector_Wire:SolderWirePad_1x03_P3.81mm_Drill1.2mm" H 2900 4050 50  0001 C CNN
F 3 "" H 2900 4050 50  0001 C CNN
	1    2900 4050
	0    1    1    0   
$EndComp
Wire Wire Line
	1800 4050 1800 4350
Connection ~ 1800 4350
$Comp
L muff-rescue:R R4
U 1 1 5AAD8368
P 3950 3250
F 0 "R4" V 4030 3250 50  0000 C CNN
F 1 "10k" V 3950 3250 50  0000 C CNN
F 2 "Resistor_SMD:R_0603_1608Metric_Pad1.05x0.95mm_HandSolder" V 3880 3250 50  0001 C CNN
F 3 "" H 3950 3250 50  0001 C CNN
	1    3950 3250
	0    1    1    0   
$EndComp
$Comp
L muff-rescue:R R5
U 1 1 5AAD8E81
P 4250 3550
F 0 "R5" V 4330 3550 50  0000 C CNN
F 1 "100k" V 4250 3550 50  0000 C CNN
F 2 "Resistor_SMD:R_0603_1608Metric_Pad1.05x0.95mm_HandSolder" V 4180 3550 50  0001 C CNN
F 3 "" H 4250 3550 50  0001 C CNN
	1    4250 3550
	1    0    0    -1  
$EndComp
Wire Wire Line
	4100 3250 4250 3250
Wire Wire Line
	4250 4350 4250 3700
$Comp
L my_transistor:2N5088 Q1
U 1 1 5AAD94AB
P 4650 3250
F 0 "Q1" H 4850 3325 50  0000 L CNN
F 1 "2N5088" H 4850 3250 50  0000 L CNN
F 2 "Package_TO_SOT_THT:TO-92" H 4850 3175 50  0001 L CIN
F 3 "" H 4650 3250 50  0001 L CNN
	1    4650 3250
	1    0    0    -1  
$EndComp
Connection ~ 4250 3250
$Comp
L muff-rescue:R R8
U 1 1 5AAD9557
P 4750 3850
F 0 "R8" V 4830 3850 50  0000 C CNN
F 1 "120" V 4750 3850 50  0000 C CNN
F 2 "Resistor_SMD:R_0603_1608Metric_Pad1.05x0.95mm_HandSolder" V 4680 3850 50  0001 C CNN
F 3 "" H 4750 3850 50  0001 C CNN
	1    4750 3850
	1    0    0    -1  
$EndComp
Wire Wire Line
	4750 3450 4750 3700
Wire Wire Line
	4750 4350 4750 4000
Connection ~ 4250 4350
$Comp
L muff-rescue:R R6
U 1 1 5AAD9664
P 4550 2850
F 0 "R6" V 4630 2850 50  0000 C CNN
F 1 "470k" V 4550 2850 50  0000 C CNN
F 2 "Resistor_SMD:R_0603_1608Metric_Pad1.05x0.95mm_HandSolder" V 4480 2850 50  0001 C CNN
F 3 "" H 4550 2850 50  0001 C CNN
	1    4550 2850
	0    1    1    0   
$EndComp
$Comp
L muff-rescue:C C7
U 1 1 5AAD974E
P 4550 2600
F 0 "C7" H 4575 2700 50  0000 L CNN
F 1 "500pF" H 4575 2500 50  0000 L CNN
F 2 "Capacitor_SMD:C_0603_1608Metric_Pad1.05x0.95mm_HandSolder" H 4588 2450 50  0001 C CNN
F 3 "" H 4550 2600 50  0001 C CNN
	1    4550 2600
	0    1    1    0   
$EndComp
Wire Wire Line
	4250 2850 4400 2850
Wire Wire Line
	4400 2600 4250 2600
Connection ~ 4250 2850
Wire Wire Line
	4700 2850 4750 2850
Wire Wire Line
	4750 1600 4750 1700
Wire Wire Line
	4700 2600 4750 2600
Connection ~ 4750 2850
$Comp
L muff-rescue:D D2
U 1 1 5AAD9A99
P 4500 2050
F 0 "D2" H 4500 2150 50  0000 C CNN
F 1 "D" H 4500 1950 50  0000 C CNN
F 2 "Diode_SMD:D_0603_1608Metric_Pad1.05x0.95mm_HandSolder" H 4500 2050 50  0001 C CNN
F 3 "" H 4500 2050 50  0001 C CNN
	1    4500 2050
	-1   0    0    1   
$EndComp
$Comp
L muff-rescue:D D1
U 1 1 5AAD9B10
P 4500 1700
F 0 "D1" H 4500 1800 50  0000 C CNN
F 1 "D" H 4500 1600 50  0000 C CNN
F 2 "Diode_SMD:D_0603_1608Metric_Pad1.05x0.95mm_HandSolder" H 4500 1700 50  0001 C CNN
F 3 "" H 4500 1700 50  0001 C CNN
	1    4500 1700
	1    0    0    -1  
$EndComp
Wire Wire Line
	4350 2050 4250 2050
Wire Wire Line
	4250 1700 4250 2050
Wire Wire Line
	4350 1700 4250 1700
Wire Wire Line
	4650 2050 4750 2050
Connection ~ 4750 2600
Wire Wire Line
	4650 1700 4750 1700
Connection ~ 4750 2050
$Comp
L muff-rescue:R R7
U 1 1 5AAD9E48
P 4750 1450
F 0 "R7" V 4830 1450 50  0000 C CNN
F 1 "12k" V 4750 1450 50  0000 C CNN
F 2 "Resistor_SMD:R_0603_1608Metric_Pad1.05x0.95mm_HandSolder" V 4680 1450 50  0001 C CNN
F 3 "" H 4750 1450 50  0001 C CNN
	1    4750 1450
	1    0    0    -1  
$EndComp
Connection ~ 4750 1700
Text GLabel 1900 1000 1    60   Input ~ 0
VCC
$Comp
L muff-rescue:R R9
U 1 1 5AADA8AA
P 5550 2950
F 0 "R9" V 5630 2950 50  0000 C CNN
F 1 "10k" V 5550 2950 50  0000 C CNN
F 2 "Resistor_SMD:R_0603_1608Metric_Pad1.05x0.95mm_HandSolder" V 5480 2950 50  0001 C CNN
F 3 "" H 5550 2950 50  0001 C CNN
	1    5550 2950
	0    1    1    0   
$EndComp
$Comp
L muff-rescue:R R10
U 1 1 5AADB194
P 5900 3250
F 0 "R10" V 5980 3250 50  0000 C CNN
F 1 "100k" V 5900 3250 50  0000 C CNN
F 2 "Resistor_SMD:R_0603_1608Metric_Pad1.05x0.95mm_HandSolder" V 5830 3250 50  0001 C CNN
F 3 "" H 5900 3250 50  0001 C CNN
	1    5900 3250
	1    0    0    -1  
$EndComp
Wire Wire Line
	5700 2950 5900 2950
Wire Wire Line
	5900 3400 5900 4350
$Comp
L my_transistor:2N5088 Q2
U 1 1 5AADB19C
P 6300 2950
F 0 "Q2" H 6500 3025 50  0000 L CNN
F 1 "2N5088" H 6500 2950 50  0000 L CNN
F 2 "Package_TO_SOT_THT:TO-92" H 6500 2875 50  0001 L CIN
F 3 "" H 6300 2950 50  0001 L CNN
	1    6300 2950
	1    0    0    -1  
$EndComp
Connection ~ 5900 2950
$Comp
L muff-rescue:R R13
U 1 1 5AADB1A3
P 6400 3550
F 0 "R13" V 6480 3550 50  0000 C CNN
F 1 "120" V 6400 3550 50  0000 C CNN
F 2 "Resistor_SMD:R_0603_1608Metric_Pad1.05x0.95mm_HandSolder" V 6330 3550 50  0001 C CNN
F 3 "" H 6400 3550 50  0001 C CNN
	1    6400 3550
	1    0    0    -1  
$EndComp
Wire Wire Line
	6400 3150 6400 3400
Wire Wire Line
	6400 3700 6400 4350
$Comp
L muff-rescue:R R11
U 1 1 5AADB1AB
P 6200 2550
F 0 "R11" V 6280 2550 50  0000 C CNN
F 1 "470k" V 6200 2550 50  0000 C CNN
F 2 "Resistor_SMD:R_0603_1608Metric_Pad1.05x0.95mm_HandSolder" V 6130 2550 50  0001 C CNN
F 3 "" H 6200 2550 50  0001 C CNN
	1    6200 2550
	0    1    1    0   
$EndComp
$Comp
L muff-rescue:C C10
U 1 1 5AADB1B1
P 6200 2300
F 0 "C10" H 6225 2400 50  0000 L CNN
F 1 "500pF" H 6225 2200 50  0000 L CNN
F 2 "Capacitor_SMD:C_0603_1608Metric_Pad1.05x0.95mm_HandSolder" H 6238 2150 50  0001 C CNN
F 3 "" H 6200 2300 50  0001 C CNN
	1    6200 2300
	0    1    1    0   
$EndComp
Wire Wire Line
	5900 2550 6050 2550
Wire Wire Line
	6050 2300 5900 2300
Connection ~ 5900 2550
Wire Wire Line
	6350 2550 6400 2550
Wire Wire Line
	6400 1300 6400 1400
Wire Wire Line
	6350 2300 6400 2300
Connection ~ 6400 2550
$Comp
L muff-rescue:D D4
U 1 1 5AADB1C6
P 6150 1750
F 0 "D4" H 6150 1850 50  0000 C CNN
F 1 "D" H 6150 1650 50  0000 C CNN
F 2 "Diode_SMD:D_0603_1608Metric_Pad1.05x0.95mm_HandSolder" H 6150 1750 50  0001 C CNN
F 3 "" H 6150 1750 50  0001 C CNN
	1    6150 1750
	-1   0    0    1   
$EndComp
$Comp
L muff-rescue:D D3
U 1 1 5AADB1CC
P 6150 1400
F 0 "D3" H 6150 1500 50  0000 C CNN
F 1 "D" H 6150 1300 50  0000 C CNN
F 2 "Diode_SMD:D_0603_1608Metric_Pad1.05x0.95mm_HandSolder" H 6150 1400 50  0001 C CNN
F 3 "" H 6150 1400 50  0001 C CNN
	1    6150 1400
	1    0    0    -1  
$EndComp
Wire Wire Line
	6000 1750 5900 1750
Wire Wire Line
	5900 1400 5900 1750
Wire Wire Line
	6000 1400 5900 1400
Wire Wire Line
	6300 1750 6400 1750
Connection ~ 6400 2300
Wire Wire Line
	6300 1400 6400 1400
Connection ~ 6400 1750
$Comp
L muff-rescue:R R12
U 1 1 5AADB1DA
P 6400 1150
F 0 "R12" V 6480 1150 50  0000 C CNN
F 1 "33k" V 6400 1150 50  0000 C CNN
F 2 "Resistor_SMD:R_0603_1608Metric_Pad1.05x0.95mm_HandSolder" V 6330 1150 50  0001 C CNN
F 3 "" H 6400 1150 50  0001 C CNN
	1    6400 1150
	1    0    0    -1  
$EndComp
Connection ~ 6400 1400
Connection ~ 4750 4350
Connection ~ 5900 4350
$Comp
L muff-rescue:C C11
U 1 1 5AADD89D
P 6750 2100
F 0 "C11" H 6775 2200 50  0000 L CNN
F 1 "0.004uF" H 6775 2000 50  0000 L CNN
F 2 "Capacitor_SMD:C_0603_1608Metric_Pad1.05x0.95mm_HandSolder" H 6788 1950 50  0001 C CNN
F 3 "" H 6750 2100 50  0001 C CNN
	1    6750 2100
	0    1    1    0   
$EndComp
$Comp
L muff-rescue:R R14
U 1 1 5AADD93E
P 6750 2600
F 0 "R14" V 6830 2600 50  0000 C CNN
F 1 "27k" V 6750 2600 50  0000 C CNN
F 2 "Resistor_SMD:R_0603_1608Metric_Pad1.05x0.95mm_HandSolder" V 6680 2600 50  0001 C CNN
F 3 "" H 6750 2600 50  0001 C CNN
	1    6750 2600
	0    1    1    0   
$EndComp
$Comp
L muff-rescue:C C12
U 1 1 5AADD9E1
P 7050 2900
F 0 "C12" H 7075 3000 50  0000 L CNN
F 1 "0.01uF" H 7075 2800 50  0000 L CNN
F 2 "Capacitor_SMD:C_0603_1608Metric_Pad1.05x0.95mm_HandSolder" H 7088 2750 50  0001 C CNN
F 3 "" H 7050 2900 50  0001 C CNN
	1    7050 2900
	1    0    0    -1  
$EndComp
Wire Wire Line
	6900 2600 7050 2600
Wire Wire Line
	7050 2500 7050 2600
Wire Wire Line
	7050 4350 7050 3050
Connection ~ 6400 4350
Wire Wire Line
	6600 2600 6400 2600
Connection ~ 6400 2600
$Comp
L muff-rescue:R R15
U 1 1 5AADDC41
P 7050 1800
F 0 "R15" V 7130 1800 50  0000 C CNN
F 1 "27k" V 7050 1800 50  0000 C CNN
F 2 "Resistor_SMD:R_0603_1608Metric_Pad1.05x0.95mm_HandSolder" V 6980 1800 50  0001 C CNN
F 3 "" H 7050 1800 50  0001 C CNN
	1    7050 1800
	1    0    0    -1  
$EndComp
Wire Wire Line
	6900 2100 7050 2100
Wire Wire Line
	7050 1950 7050 2100
Wire Wire Line
	6600 2100 6400 2100
Connection ~ 6400 2100
$Comp
L muff-rescue:POT TONE1
U 1 1 5AADDF41
P 7050 2350
F 0 "TONE1" V 6875 2350 50  0000 C CNN
F 1 "100k" V 6950 2350 50  0000 C CNN
F 2 "Connector_Wire:SolderWirePad_1x03_P3.81mm_Drill1.2mm" H 7050 2350 50  0001 C CNN
F 3 "" H 7050 2350 50  0001 C CNN
	1    7050 2350
	1    0    0    -1  
$EndComp
Connection ~ 7050 2100
Connection ~ 7050 2600
$Comp
L muff-rescue:R R16
U 1 1 5AADE2D8
P 7750 2050
F 0 "R16" V 7830 2050 50  0000 C CNN
F 1 "470k" V 7750 2050 50  0000 C CNN
F 2 "Resistor_SMD:R_0603_1608Metric_Pad1.05x0.95mm_HandSolder" V 7680 2050 50  0001 C CNN
F 3 "" H 7750 2050 50  0001 C CNN
	1    7750 2050
	1    0    0    -1  
$EndComp
$Comp
L muff-rescue:R R17
U 1 1 5AADE3AB
P 7750 2650
F 0 "R17" V 7830 2650 50  0000 C CNN
F 1 "100k" V 7750 2650 50  0000 C CNN
F 2 "Resistor_SMD:R_0603_1608Metric_Pad1.05x0.95mm_HandSolder" V 7680 2650 50  0001 C CNN
F 3 "" H 7750 2650 50  0001 C CNN
	1    7750 2650
	1    0    0    -1  
$EndComp
Wire Wire Line
	7750 2200 7750 2350
Connection ~ 7750 2350
$Comp
L my_transistor:2N5088 Q3
U 1 1 5AADE588
P 8150 2350
F 0 "Q3" H 8350 2425 50  0000 L CNN
F 1 "2N5088" H 8350 2350 50  0000 L CNN
F 2 "Package_TO_SOT_THT:TO-92" H 8350 2275 50  0001 L CIN
F 3 "" H 8150 2350 50  0001 L CNN
	1    8150 2350
	1    0    0    -1  
$EndComp
Wire Wire Line
	7750 4350 7750 2800
Connection ~ 7050 4350
Wire Wire Line
	7750 1000 7750 1900
$Comp
L muff-rescue:R R18
U 1 1 5AADEDEC
P 8250 1650
F 0 "R18" V 8330 1650 50  0000 C CNN
F 1 "10k" V 8250 1650 50  0000 C CNN
F 2 "Resistor_SMD:R_0603_1608Metric_Pad1.05x0.95mm_HandSolder" V 8180 1650 50  0001 C CNN
F 3 "" H 8250 1650 50  0001 C CNN
	1    8250 1650
	1    0    0    -1  
$EndComp
$Comp
L muff-rescue:R R19
U 1 1 5AADEE9E
P 8250 2950
F 0 "R19" V 8330 2950 50  0000 C CNN
F 1 "2.7k" V 8250 2950 50  0000 C CNN
F 2 "Resistor_SMD:R_0603_1608Metric_Pad1.05x0.95mm_HandSolder" V 8180 2950 50  0001 C CNN
F 3 "" H 8250 2950 50  0001 C CNN
	1    8250 2950
	1    0    0    -1  
$EndComp
Wire Wire Line
	8250 4350 8250 3100
Connection ~ 7750 4350
Wire Wire Line
	8250 2800 8250 2550
Wire Wire Line
	8250 1000 8250 1500
$Comp
L muff-rescue:POT VOL1
U 1 1 5AADF2D4
P 9050 2000
F 0 "VOL1" V 8875 2000 50  0000 C CNN
F 1 "100k" V 8950 2000 50  0000 C CNN
F 2 "Connector_Wire:SolderWirePad_1x03_P3.81mm_Drill1.2mm" H 9050 2000 50  0001 C CNN
F 3 "" H 9050 2000 50  0001 C CNN
	1    9050 2000
	1    0    0    -1  
$EndComp
Connection ~ 8250 4350
$Comp
L muff-rescue:Conn_01x02 OUT1
U 1 1 5AADFAE3
P 10950 1950
F 0 "OUT1" H 10950 2050 50  0000 C CNN
F 1 "Conn_01x02" H 10950 1750 50  0000 C CNN
F 2 "Connector_Wire:SolderWirePad_1x02_P3.81mm_Drill0.8mm" H 10950 1950 50  0001 C CNN
F 3 "" H 10950 1950 50  0001 C CNN
	1    10950 1950
	1    0    0    -1  
$EndComp
Wire Wire Line
	2250 4050 2400 4050
$Comp
L muff-rescue:R R1
U 1 1 5B8047BE
P 1250 3650
F 0 "R1" V 1330 3650 50  0000 C CNN
F 1 "1M" V 1250 3650 50  0000 C CNN
F 2 "Resistor_SMD:R_0603_1608Metric_Pad1.05x0.95mm_HandSolder" V 1180 3650 50  0001 C CNN
F 3 "" H 1250 3650 50  0001 C CNN
	1    1250 3650
	1    0    0    -1  
$EndComp
$Comp
L muff-rescue:C C1
U 1 1 5B804873
P 1550 3650
F 0 "C1" H 1575 3750 50  0000 L CNN
F 1 "1n" H 1575 3550 50  0000 L CNN
F 2 "Capacitor_SMD:C_0603_1608Metric_Pad1.05x0.95mm_HandSolder" H 1588 3500 50  0001 C CNN
F 3 "" H 1550 3650 50  0001 C CNN
	1    1550 3650
	1    0    0    -1  
$EndComp
Wire Wire Line
	1050 4050 1250 4050
Wire Wire Line
	1050 4050 1050 3150
Wire Wire Line
	1050 3150 950  3150
Wire Wire Line
	1250 3800 1250 4050
Connection ~ 1250 4050
Wire Wire Line
	1550 3800 1550 4050
Connection ~ 1550 4050
Wire Wire Line
	1550 3500 1550 3400
Wire Wire Line
	1550 3400 1250 3400
Connection ~ 1250 3400
$Comp
L muff-rescue:R R2
U 1 1 5B8058AF
P 1350 3050
F 0 "R2" V 1430 3050 50  0000 C CNN
F 1 "10k" V 1350 3050 50  0000 C CNN
F 2 "Resistor_SMD:R_0603_1608Metric_Pad1.05x0.95mm_HandSolder" V 1280 3050 50  0001 C CNN
F 3 "" H 1350 3050 50  0001 C CNN
	1    1350 3050
	0    1    1    0   
$EndComp
$Comp
L muff-rescue:C C2
U 1 1 5B805B03
P 1750 3050
F 0 "C2" H 1775 3150 50  0000 L CNN
F 1 "10n" H 1775 2950 50  0000 L CNN
F 2 "Capacitor_SMD:C_0603_1608Metric_Pad1.05x0.95mm_HandSolder" H 1788 2900 50  0001 C CNN
F 3 "" H 1750 3050 50  0001 C CNN
	1    1750 3050
	0    1    1    0   
$EndComp
Wire Wire Line
	1500 3050 1600 3050
Wire Wire Line
	1200 3050 1150 3050
Wire Wire Line
	1250 3250 1250 3400
Wire Wire Line
	1250 3250 1150 3250
Wire Wire Line
	1150 3250 1150 3050
Connection ~ 1150 3050
Wire Wire Line
	2350 3150 2500 3150
Wire Wire Line
	1800 4050 1950 4050
Wire Wire Line
	2400 4050 2750 4050
Wire Wire Line
	4250 3250 4450 3250
Wire Wire Line
	4250 3250 4250 3400
Wire Wire Line
	4250 4350 4750 4350
Wire Wire Line
	4250 2850 4250 3250
Wire Wire Line
	4250 2600 4250 2850
Wire Wire Line
	4750 2600 4750 2850
Wire Wire Line
	4750 2050 4750 2600
Wire Wire Line
	4750 1700 4750 2050
Wire Wire Line
	5900 2950 6100 2950
Wire Wire Line
	5900 2950 5900 3100
Wire Wire Line
	5900 2550 5900 2950
Wire Wire Line
	6400 2550 6400 2600
Wire Wire Line
	5900 2300 5900 2550
Wire Wire Line
	6400 2300 6400 2550
Wire Wire Line
	6400 1750 6400 2100
Wire Wire Line
	6400 1400 6400 1750
Wire Wire Line
	4750 4350 5900 4350
Wire Wire Line
	5900 4350 6400 4350
Wire Wire Line
	6400 4350 7050 4350
Wire Wire Line
	6400 2600 6400 2750
Wire Wire Line
	6400 2100 6400 2300
Wire Wire Line
	7050 2100 7050 2200
Wire Wire Line
	7050 2600 7050 2750
Wire Wire Line
	7750 2350 7950 2350
Wire Wire Line
	7750 2350 7750 2500
Wire Wire Line
	7050 4350 7750 4350
Wire Wire Line
	7750 4350 8250 4350
Wire Wire Line
	1250 4050 1550 4050
Wire Wire Line
	1550 4050 1800 4050
Wire Wire Line
	1250 3400 1250 3500
Wire Wire Line
	1150 3050 950  3050
$Comp
L muff-rescue:CP C3
U 1 1 5BDEEAB6
P 2000 1250
F 0 "C3" H 2025 1350 50  0000 L CNN
F 1 "1uF" H 2025 1150 50  0000 L CNN
F 2 "Capacitor_THT:CP_Axial_L10.0mm_D4.5mm_P15.00mm_Horizontal" H 2038 1100 50  0001 C CNN
F 3 "" H 2000 1250 50  0001 C CNN
	1    2000 1250
	1    0    0    -1  
$EndComp
Wire Wire Line
	1450 1950 1500 1950
Wire Wire Line
	2000 1400 2000 1500
Wire Wire Line
	1450 1650 1550 1650
Wire Wire Line
	1850 1650 1850 1500
Wire Wire Line
	1850 1500 2000 1500
Wire Wire Line
	1450 1750 1550 1750
Wire Wire Line
	1550 1750 1550 1650
Connection ~ 1550 1650
Wire Wire Line
	1550 1650 1700 1650
Wire Wire Line
	1450 1850 1550 1850
Wire Wire Line
	1550 1850 1550 1750
Connection ~ 1550 1750
Wire Wire Line
	1450 1550 1600 1550
Wire Wire Line
	1600 1550 1600 1100
Wire Wire Line
	1600 1100 1900 1100
Wire Wire Line
	950  1950 900  1950
Wire Wire Line
	900  1950 900  2150
Wire Wire Line
	900  2150 1500 2150
Wire Wire Line
	1500 2150 1500 1950
Connection ~ 1500 1950
Wire Wire Line
	1500 1950 1900 1950
Wire Wire Line
	950  1550 850  1550
Wire Wire Line
	850  1550 850  1000
Wire Wire Line
	850  1000 1600 1000
Wire Wire Line
	1600 1000 1600 1100
Connection ~ 1600 1100
Wire Wire Line
	950  1650 900  1650
Wire Wire Line
	700  1650 700  2250
Wire Wire Line
	700  2250 1700 2250
Wire Wire Line
	1700 2250 1700 1650
Connection ~ 1700 1650
Wire Wire Line
	1700 1650 1850 1650
Wire Wire Line
	950  1850 900  1850
Wire Wire Line
	900  1850 900  1750
Connection ~ 900  1650
Wire Wire Line
	900  1650 700  1650
Wire Wire Line
	950  1750 900  1750
Connection ~ 900  1750
Wire Wire Line
	900  1750 900  1650
Wire Wire Line
	1900 1000 1900 1100
Connection ~ 1900 1100
Wire Wire Line
	1900 1100 2000 1100
Wire Wire Line
	1900 2050 1900 1950
Connection ~ 1900 1950
Wire Wire Line
	1900 1950 2000 1950
Text GLabel 2250 1500 2    50   Input ~ 0
GND
Text GLabel 7050 1400 1    50   Input ~ 0
GND
Text GLabel 1800 4700 3    50   Input ~ 0
GND
Wire Wire Line
	1800 4350 1800 4700
Wire Wire Line
	2000 1650 2000 1500
Connection ~ 2000 1500
Wire Wire Line
	2250 1500 2000 1500
Wire Wire Line
	7050 1400 7050 1650
Wire Wire Line
	8250 1000 7750 1000
Wire Wire Line
	7750 1000 6400 1000
Connection ~ 7750 1000
Connection ~ 6400 1000
Wire Wire Line
	4750 1000 4750 1100
Wire Wire Line
	4750 1000 6400 1000
Wire Wire Line
	2000 1100 4750 1100
Connection ~ 2000 1100
Connection ~ 4750 1100
Wire Wire Line
	4750 1100 4750 1300
$Comp
L muff-rescue:C C6
U 1 1 5BEBD5B8
P 4250 2300
F 0 "C6" H 4275 2400 50  0000 L CNN
F 1 "1u" H 4275 2200 50  0000 L CNN
F 2 "Capacitor_SMD:C_0603_1608Metric_Pad1.05x0.95mm_HandSolder" H 4288 2150 50  0001 C CNN
F 3 "" H 4250 2300 50  0001 C CNN
	1    4250 2300
	1    0    0    -1  
$EndComp
$Comp
L muff-rescue:C C9
U 1 1 5BEBD672
P 5900 2000
F 0 "C9" H 5925 2100 50  0000 L CNN
F 1 "1u" H 5925 1900 50  0000 L CNN
F 2 "Capacitor_SMD:C_0603_1608Metric_Pad1.05x0.95mm_HandSolder" H 5938 1850 50  0001 C CNN
F 3 "" H 5900 2000 50  0001 C CNN
	1    5900 2000
	1    0    0    -1  
$EndComp
$Comp
L muff-rescue:C C5
U 1 1 5BEBD700
P 3500 3250
F 0 "C5" H 3525 3350 50  0000 L CNN
F 1 "1u" H 3525 3150 50  0000 L CNN
F 2 "Capacitor_SMD:C_0603_1608Metric_Pad1.05x0.95mm_HandSolder" H 3538 3100 50  0001 C CNN
F 3 "" H 3500 3250 50  0001 C CNN
	1    3500 3250
	0    1    1    0   
$EndComp
$Comp
L muff-rescue:C C8
U 1 1 5BEBD79A
P 5050 2950
F 0 "C8" H 5075 3050 50  0000 L CNN
F 1 "1u" H 5075 2850 50  0000 L CNN
F 2 "Capacitor_SMD:C_0603_1608Metric_Pad1.05x0.95mm_HandSolder" H 5088 2800 50  0001 C CNN
F 3 "" H 5050 2950 50  0001 C CNN
	1    5050 2950
	0    1    1    0   
$EndComp
$Comp
L muff-rescue:C C13
U 1 1 5BEBD82C
P 7450 2350
F 0 "C13" H 7475 2450 50  0000 L CNN
F 1 "1u" H 7475 2250 50  0000 L CNN
F 2 "Capacitor_SMD:C_0603_1608Metric_Pad1.05x0.95mm_HandSolder" H 7488 2200 50  0001 C CNN
F 3 "" H 7450 2350 50  0001 C CNN
	1    7450 2350
	0    1    1    0   
$EndComp
$Comp
L muff-rescue:C C14
U 1 1 5BEBD8DA
P 8600 2000
F 0 "C14" H 8625 2100 50  0000 L CNN
F 1 "1u" H 8625 1900 50  0000 L CNN
F 2 "Capacitor_SMD:C_0603_1608Metric_Pad1.05x0.95mm_HandSolder" H 8638 1850 50  0001 C CNN
F 3 "" H 8600 2000 50  0001 C CNN
	1    8600 2000
	0    1    1    0   
$EndComp
Wire Wire Line
	3200 3250 3350 3250
Connection ~ 3200 3250
Wire Wire Line
	3650 3250 3800 3250
Wire Wire Line
	4250 2150 4250 2050
Connection ~ 4250 2050
Wire Wire Line
	4250 2450 4250 2600
Connection ~ 4250 2600
Wire Wire Line
	5900 1750 5900 1850
Connection ~ 5900 1750
Wire Wire Line
	5900 2150 5900 2300
Connection ~ 5900 2300
Wire Wire Line
	7300 2350 7200 2350
Wire Wire Line
	7600 2350 7750 2350
Wire Wire Line
	8250 1800 8250 2000
Wire Wire Line
	8450 2000 8250 2000
Connection ~ 8250 2000
Wire Wire Line
	8250 2000 8250 2150
Wire Wire Line
	4750 2850 4750 2950
Wire Wire Line
	4900 2950 4750 2950
Connection ~ 4750 2950
Wire Wire Line
	4750 2950 4750 3050
Wire Wire Line
	5200 2950 5400 2950
$Comp
L muff-rescue:SW_DPDT_x2 SW1
U 1 1 5BF576BD
P 10450 1950
F 0 "SW1" H 10450 2120 50  0000 C CNN
F 1 "SW_DPDT_x2" H 10450 1750 50  0000 C CNN
F 2 "Connector_Wire:SolderWirePad_1x03_P3.81mm_Drill1.2mm" H 10450 1950 50  0001 C CNN
F 3 "" H 10450 1950 50  0001 C CNN
	1    10450 1950
	-1   0    0    1   
$EndComp
Wire Wire Line
	2350 3050 2350 3150
Wire Wire Line
	1900 3050 2350 3050
Wire Wire Line
	2350 2700 2350 3050
Connection ~ 2350 3050
Wire Wire Line
	10650 1950 10750 1950
$Comp
L muff-rescue:TL072 U1
U 2 1 5BFB022A
P 9750 2750
F 0 "U1" H 9750 2950 50  0000 L CNN
F 1 "TL072" H 9750 2550 50  0000 L CNN
F 2 "Package_DIP:DIP-8_W7.62mm" H 9750 2750 50  0001 C CNN
F 3 "" H 9750 2750 50  0001 C CNN
	2    9750 2750
	1    0    0    -1  
$EndComp
Wire Wire Line
	9450 2850 9300 2850
Wire Wire Line
	9450 2000 9450 1850
Wire Wire Line
	9450 1850 10250 1850
Wire Wire Line
	10050 2750 10050 2050
Wire Wire Line
	10050 2050 10250 2050
Connection ~ 10050 2750
Text GLabel 9300 2550 1    60   Input ~ 0
PASSTHRU
Wire Wire Line
	9300 2550 9300 2650
Wire Wire Line
	9300 2650 9450 2650
Wire Wire Line
	10750 4350 10750 2050
Text GLabel 9650 2350 1    60   Input ~ 0
VCC
Text GLabel 9650 3150 3    60   Input ~ 0
VSS
Wire Wire Line
	9650 2350 9650 2450
Wire Wire Line
	9650 3050 9650 3150
Wire Wire Line
	9300 3500 10050 3500
Wire Wire Line
	10050 2750 10050 3500
Wire Wire Line
	9300 2850 9300 3500
Wire Wire Line
	2700 3550 2700 3650
Wire Wire Line
	2700 2850 2700 2950
$Comp
L Connector_Generic:Conn_02x08_Odd_Even J1
U 1 1 5BDF92D9
P 1150 1550
F 0 "J1" H 1200 2067 50  0000 C CNN
F 1 "Conn_02x08_Odd_Even" H 1200 1976 50  0000 C CNN
F 2 "" H 1150 1550 50  0001 C CNN
F 3 "~" H 1150 1550 50  0001 C CNN
	1    1150 1550
	1    0    0    -1  
$EndComp
Wire Wire Line
	1800 4350 4250 4350
Wire Wire Line
	3200 4250 2900 4250
Wire Wire Line
	2900 4250 2900 4200
Wire Wire Line
	3200 3250 3200 4050
Wire Wire Line
	8250 4350 9050 4350
Wire Wire Line
	9050 1850 8750 1850
Wire Wire Line
	8750 1850 8750 2000
Wire Wire Line
	9200 2000 9450 2000
Wire Wire Line
	9050 2150 9050 4350
Connection ~ 9050 4350
Wire Wire Line
	9050 4350 10750 4350
Wire Wire Line
	3050 4050 3200 4050
Connection ~ 3200 4050
Wire Wire Line
	3200 4050 3200 4250
$EndSCHEMATC
